<?xml version="1.0" encoding="utf-8"?>
<!-- Generator: Adobe Illustrator 19.0.0, SVG Export Plug-In . SVG Version: 6.00 Build 0)  -->
<svg version="1.1" id="Layer_1" xmlns="http://www.w3.org/2000/svg" xmlns:xlink="http://www.w3.org/1999/xlink" x="0px" y="0px"
	 viewBox="0 0 350 350" style="enable-background:new 0 0 350 350;" xml:space="preserve">
<style type="text/css">
	.st0{fill:#010101;}
</style>
<path id="XMLID_7_" class="st0" d="M161.5,13.4v123.8c0,7.9-2.3,15-6.9,21.5s-10.5,11-17.9,13.5V323c0,6.7-2.5,12.5-7.4,17.4
	c-4.9,4.9-10.7,7.4-17.4,7.4H87.2c-6.7,0-12.5-2.5-17.4-7.4c-4.9-4.9-7.4-10.7-7.4-17.4V172.2c-7.4-2.6-13.3-7.1-17.9-13.5
	s-6.9-13.6-6.9-21.5V13.4c0-3.4,1.2-6.3,3.7-8.7C43.8,2.2,46.7,1,50.1,1c3.4,0,6.3,1.2,8.7,3.7c2.5,2.5,3.7,5.4,3.7,8.7v80.5
	c0,3.4,1.2,6.3,3.7,8.7s5.4,3.7,8.7,3.7c3.4,0,6.3-1.2,8.7-3.7c2.5-2.5,3.7-5.4,3.7-8.7V13.4c0-3.4,1.2-6.3,3.7-8.7S96.3,1,99.6,1
	s6.3,1.2,8.7,3.7s3.7,5.4,3.7,8.7v80.5c0,3.4,1.2,6.3,3.7,8.7s5.4,3.7,8.7,3.7c3.4,0,6.3-1.2,8.7-3.7c2.5-2.5,3.7-5.4,3.7-8.7V13.4
	c0-3.4,1.2-6.3,3.7-8.7c2.5-2.5,5.4-3.7,8.7-3.7s6.3,1.2,8.7,3.7C160.3,7.1,161.5,10,161.5,13.4z M310.1,13.4V323
	c0,6.7-2.5,12.5-7.4,17.4c-4.9,4.9-10.7,7.4-17.4,7.4h-24.8c-6.7,0-12.5-2.5-17.4-7.4c-4.9-4.9-7.4-10.7-7.4-17.4v-99.1h-43.3
	c-1.7,0-3.1-0.6-4.4-1.8c-1.2-1.2-1.8-2.7-1.8-4.4V62.9c0-17,6.1-31.6,18.2-43.7C216.6,7.1,231.2,1,248.2,1h49.5
	c3.4,0,6.3,1.2,8.7,3.7S310.1,10,310.1,13.4z"/>
</svg>
