<?xml version="1.0" encoding="utf-8"?>
<!-- Generator: Adobe Illustrator 19.0.0, SVG Export Plug-In . SVG Version: 6.00 Build 0)  -->
<svg version="1.1" id="Layer_1" xmlns="http://www.w3.org/2000/svg" xmlns:xlink="http://www.w3.org/1999/xlink" x="0px" y="0px"
	 viewBox="0 0 350 350" style="enable-background:new 0 0 350 350;" xml:space="preserve">
<g id="XMLID_41_">
	<path id="XMLID_83_" d="M111.7,70c3.6,0,6.5-2.9,6.5-6.5v-32c0-3.6-2.9-6.5-6.5-6.5c-3.6,0-6.5,2.9-6.5,6.5v32
		C105.2,67.1,108.1,70,111.7,70z"/>
	<path id="XMLID_84_" d="M137.1,70c3.6,0,6.5-2.9,6.5-6.5v-32c0-3.6-2.9-6.5-6.5-6.5c-3.6,0-6.5,2.9-6.5,6.5v32
		C130.6,67.1,133.5,70,137.1,70z"/>
	<path id="XMLID_85_" d="M162.5,70L162.5,70c3.6,0,6.5-2.9,6.5-6.5v-32c0-3.6-2.9-6.5-6.5-6.5h0c-3.6,0-6.5,2.9-6.5,6.5v32
		C156,67.1,158.9,70,162.5,70z"/>
	<path id="XMLID_86_" d="M187.9,70c3.6,0,6.5-2.9,6.5-6.5v-32c0-3.6-2.9-6.5-6.5-6.5c-3.6,0-6.5,2.9-6.5,6.5v32
		C181.4,67.1,184.3,70,187.9,70z"/>
	<path id="XMLID_87_" d="M213.3,70c3.6,0,6.5-2.9,6.5-6.5v-32c0-3.6-2.9-6.5-6.5-6.5c-3.6,0-6.5,2.9-6.5,6.5v32
		C206.8,67.1,209.7,70,213.3,70z"/>
	<path id="XMLID_88_" d="M238.7,70c3.6,0,6.5-2.9,6.5-6.5v-32c0-3.6-2.9-6.5-6.5-6.5c-3.6,0-6.5,2.9-6.5,6.5v32
		C232.2,67.1,235.1,70,238.7,70z"/>
	<path id="XMLID_91_" d="M288.2,73.2h-19V30.7c0-15.4-12.6-28-28-28H110.3c-15.4,0-28,12.6-28,28v42.5H63.2
		C40.4,73.2,22,91.6,22,114.3v193.5c0,22.6,18.4,41.2,41.2,41.2h225c22.7,0,41.2-18.5,41.2-41.2V114.3
		C329.5,91.6,311,73.2,288.2,73.2z M110.3,21.8h1.6v0h73.7v0h55.6c4.9,0,8.9,4,8.9,8.9v42.5H101.4V30.7h-0.1
		C101.3,25.8,105.3,21.8,110.3,21.8z M41.1,119.7v-5.4c0-12.2,10-22.1,22.1-22.1h225c12.3,0,22.2,9.9,22.2,22.1v48.6H41L41.1,119.7
		L41.1,119.7z M288.3,329.9H63.2c-12.2,0-22.1-10-22.1-22.1v-6.9H41v-71.4h269.3v78.2C310.4,319.9,300.4,329.9,288.3,329.9z"/>
</g>
</svg>
