{
  "css_prefix_text": "df df-",
  "glyphs": [
    "atlaides", 
    "bezrecepsu-zales",
    "delikati",
    "higienai",
    "kosmetika",
    "mazuliem",
    "medikamenti",
    "merierices",
    "sievietei",
    "speciala-partika",
    "tejas",
    "vitamini"
  ]
}